

 NAS Parallel Benchmarks 3.4 -- FT Benchmark

 No input file inputft.data. Using compiled defaults
 Size                : 4096x2048x2048  (class E)
 Iterations          :             25
 Number of processes :             32
 Processor array     :         1x  32
 Layout type         :             1D
2 total processes killed (some possibly by mpirun during cleanup)
